<?xml version="1.0" encoding="utf-8"?>
<!-- Generator: Adobe Illustrator 16.0.0, SVG Export Plug-In . SVG Version: 6.00 Build 0)  -->
<!DOCTYPE svg PUBLIC "-//W3C//DTD SVG 1.1//EN" "http://www.w3.org/Graphics/SVG/1.1/DTD/svg11.dtd">
<svg version="1.1" id="Layer_1" xmlns="http://www.w3.org/2000/svg" xmlns:xlink="http://www.w3.org/1999/xlink" x="0px" y="0px"
	 width="59px" height="53px" viewBox="0 0 59 53" enable-background="new 0 0 59 53" xml:space="preserve">
<g>
	<path fill="#D8D8D8" d="M5.873,26.521c0.568-0.527,1.223-0.824,1.997-0.829c1.244-0.009,2.489-0.037,3.732,0.003
		c2.301,0.074,3.864-2.323,2.747-4.444c-0.941-1.789-2.297-3.178-3.922-4.338c-0.862-0.616-1.766-1.165-2.688-1.68
		c-1.601-0.894-2.104-2.59-1.246-4.2c0.621-1.165,1.234-2.335,1.849-3.504c0.881-1.682,2.527-2.229,4.222-1.371
		c2.612,1.324,5.093,2.849,7.333,4.753c2.977,2.532,4.992,5.666,6.047,9.431c0.809,2.889,1.096,5.839,1.1,8.825
		c0.006,4.606,0.004,9.212,0,13.817c-0.002,1.641-0.938,2.814-2.451,3.09c-0.168,0.029-0.342,0.031-0.514,0.031
		c-5.308,0.002-10.615-0.012-15.923,0.01c-1.532,0.006-2.72-0.879-3.073-2.192C5.069,43.878,5.027,43.842,5,43.802
		c0-5.243,0-10.485,0-15.727C5.217,27.516,5.411,26.949,5.873,26.521z"/>
	<path fill="#D8D8D8" d="M52.654,28.396c-0.002,4.854,0.001,9.707,0.007,14.562c0.001,0.147-0.071,0.319,0.075,0.446
		c0,0.054,0,0.105,0,0.158c-0.188,0.33-0.197,0.724-0.4,1.053c-0.588,0.949-1.416,1.488-2.543,1.488
		c-5.399,0.006-10.8,0.004-16.199,0.002c-1.629,0-2.938-1.287-2.938-2.91c-0.006-4.844-0.006-9.687,0-14.53
		c0.002-1.683,1.28-2.966,2.954-2.977c1.217-0.009,2.436-0.039,3.652,0.005c2.276,0.084,3.879-2.299,2.761-4.433
		c-0.946-1.803-2.312-3.199-3.95-4.364c-0.863-0.613-1.766-1.161-2.688-1.678c-1.564-0.876-2.08-2.558-1.252-4.139
		c0.637-1.217,1.275-2.432,1.924-3.643c0.828-1.548,2.436-2.121,4.008-1.346c3.287,1.621,6.355,3.569,8.954,6.195
		c2.266,2.291,3.733,5.028,4.599,8.111c0.639,2.276,0.946,4.603,1.045,6.959c0.004,0.084-0.042,0.19,0.074,0.244
		c0,0.131,0,0.265,0,0.396C52.586,28.104,52.654,28.264,52.654,28.396z"/>
	<path fill="#D8D8D8" d="M52.736,43.405c-0.146-0.128-0.075-0.298-0.075-0.446c-0.007-4.854-0.009-9.708-0.007-14.563
		c0-0.133-0.068-0.293,0.082-0.4C52.736,33.132,52.736,38.27,52.736,43.405z"/>
</g>
</svg>
